\relax 
\providecommand\hyper@newdestlabel[2]{}
\catcode `"\active 
\providecommand\HyperFirstAtBeginDocument{\AtBeginDocument}
\HyperFirstAtBeginDocument{\ifx\hyper@anchor\@undefined
\global\let\oldcontentsline\contentsline
\gdef\contentsline#1#2#3#4{\oldcontentsline{#1}{#2}{#3}}
\global\let\oldnewlabel\newlabel
\gdef\newlabel#1#2{\newlabelxx{#1}#2}
\gdef\newlabelxx#1#2#3#4#5#6{\oldnewlabel{#1}{{#2}{#3}}}
\AtEndDocument{\ifx\hyper@anchor\@undefined
\let\contentsline\oldcontentsline
\let\newlabel\oldnewlabel
\fi}
\fi}
\global\let\hyper@last\relax 
\gdef\HyperFirstAtBeginDocument#1{#1}
\providecommand\HyField@AuxAddToFields[1]{}
\providecommand\HyField@AuxAddToCoFields[2]{}
\bibstyle{ugost2008ls}
\@input{titlepage.aux}
\select@language{russian}
\@writefile{toc}{\select@language{russian}}
\@writefile{lof}{\select@language{russian}}
\@writefile{lot}{\select@language{russian}}
\@input{ToC.aux}
\@writefile{toc}{\contentsline {section}{\numberline {1}\IeC {\CYRC }\IeC {\cyre }\IeC {\cyrl }\IeC {\cyrsftsn } \IeC {\cyrr }\IeC {\cyra }\IeC {\cyrb }\IeC {\cyro }\IeC {\cyrt }\IeC {\cyrery }}{2}{section.1}}
\@writefile{toc}{\contentsline {section}{\numberline {2}\IeC {\CYRP }\IeC {\cyrr }\IeC {\cyro }\IeC {\cyrg }\IeC {\cyrr }\IeC {\cyra }\IeC {\cyrm }\IeC {\cyrm }\IeC {\cyra } \IeC {\cyrr }\IeC {\cyra }\IeC {\cyrb }\IeC {\cyro }\IeC {\cyrt }\IeC {\cyrery }}{2}{section.2}}
\@writefile{toc}{\contentsline {section}{\numberline {3}\IeC {\CYRT }\IeC {\cyre }\IeC {\cyro }\IeC {\cyrr }\IeC {\cyre }\IeC {\cyrt }\IeC {\cyri }\IeC {\cyrch }\IeC {\cyre }\IeC {\cyrs }\IeC {\cyrk }\IeC {\cyra }\IeC {\cyrya } \IeC {\cyri }\IeC {\cyrn }\IeC {\cyrf }\IeC {\cyro }\IeC {\cyrr }\IeC {\cyrm }\IeC {\cyra }\IeC {\cyrc }\IeC {\cyri }\IeC {\cyrya }}{2}{section.3}}
\@writefile{toc}{\contentsline {section}{\numberline {4}\IeC {\CYRH }\IeC {\cyro }\IeC {\cyrd } \IeC {\cyrv }\IeC {\cyrery }\IeC {\cyrp }\IeC {\cyro }\IeC {\cyrl }\IeC {\cyrn }\IeC {\cyre }\IeC {\cyrn }\IeC {\cyri }\IeC {\cyrya } \IeC {\cyrr }\IeC {\cyra }\IeC {\cyrb }\IeC {\cyro }\IeC {\cyrt }\IeC {\cyrery }}{3}{section.4}}
\@writefile{toc}{\contentsline {subsection}{\numberline {4.1}\IeC {\CYRV }\IeC {\cyri }\IeC {\cyrz }\IeC {\cyru }\IeC {\cyra }\IeC {\cyrl }\IeC {\cyri }\IeC {\cyrz }\IeC {\cyra }\IeC {\cyrc }\IeC {\cyri }\IeC {\cyrya } \IeC {\cyrs }\IeC {\cyri }\IeC {\cyrg }\IeC {\cyrn }\IeC {\cyra }\IeC {\cyrl }\IeC {\cyro }\IeC {\cyrv }, \IeC {\cyrp }\IeC {\cyro }\IeC {\cyrl }\IeC {\cyru }\IeC {\cyrch }\IeC {\cyre }\IeC {\cyrn }\IeC {\cyri }\IeC {\cyre } \IeC {\cyrs }\IeC {\cyrp }\IeC {\cyre }\IeC {\cyrk }\IeC {\cyrt }\IeC {\cyrr }\IeC {\cyro }\IeC {\cyrv }}{3}{subsection.4.1}}
\newlabel{code:lab1}{{1}{3}{расчет временных фунций}{lstlisting.1}{}}
\@writefile{lol}{\contentsline {lstlisting}{\numberline {1}\IeC {\cyrr }\IeC {\cyra }\IeC {\cyrs }\IeC {\cyrch }\IeC {\cyre }\IeC {\cyrt } \IeC {\cyrv }\IeC {\cyrr }\IeC {\cyre }\IeC {\cyrm }\IeC {\cyre }\IeC {\cyrn }\IeC {\cyrn }\IeC {\cyrery }\IeC {\cyrh } \IeC {\cyrf }\IeC {\cyru }\IeC {\cyrn }\IeC {\cyrc }\IeC {\cyri }\IeC {\cyrishrt }}{3}{lstlisting.1}}
\@writefile{lof}{\contentsline {figure}{\numberline {4.1}{\ignorespaces \IeC {\cyrr }\IeC {\cyra }\IeC {\cyrs }\IeC {\cyrch }\IeC {\cyre }\IeC {\cyrt } \IeC {\cyrv }\IeC {\cyrr }\IeC {\cyre }\IeC {\cyrm }\IeC {\cyre }\IeC {\cyrn }\IeC {\cyrn }\IeC {\cyrery }\IeC {\cyrh } \IeC {\cyrf }\IeC {\cyru }\IeC {\cyrn }\IeC {\cyrc }\IeC {\cyri }\IeC {\cyrishrt }\relax }}{3}{figure.caption.1}}
\providecommand*\caption@xref[2]{\@setref\relax\@undefined{#1}}
\newlabel{pic:pic_1}{{4.1}{3}{расчет временных фунций\relax }{figure.caption.1}{}}
\newlabel{code:lab1}{{2}{3}{кусочная зависимость}{lstlisting.2}{}}
\@writefile{lol}{\contentsline {lstlisting}{\numberline {2}\IeC {\cyrk }\IeC {\cyru }\IeC {\cyrs }\IeC {\cyro }\IeC {\cyrch }\IeC {\cyrn }\IeC {\cyra }\IeC {\cyrya } \IeC {\cyrz }\IeC {\cyra }\IeC {\cyrv }\IeC {\cyri }\IeC {\cyrs }\IeC {\cyri }\IeC {\cyrm }\IeC {\cyro }\IeC {\cyrs }\IeC {\cyrt }\IeC {\cyrsftsn }}{3}{lstlisting.2}}
\@writefile{lof}{\contentsline {figure}{\numberline {4.2}{\ignorespaces \IeC {\cyrk }\IeC {\cyru }\IeC {\cyrs }\IeC {\cyro }\IeC {\cyrch }\IeC {\cyrn }\IeC {\cyra }\IeC {\cyrya } \IeC {\cyrz }\IeC {\cyra }\IeC {\cyrv }\IeC {\cyri }\IeC {\cyrs }\IeC {\cyri }\IeC {\cyrm }\IeC {\cyro }\IeC {\cyrs }\IeC {\cyrt }\IeC {\cyrsftsn }\relax }}{4}{figure.caption.2}}
\newlabel{pic:pic_2}{{4.2}{4}{кусочная зависимость\relax }{figure.caption.2}{}}
\newlabel{code:lab1}{{3}{4}{прямоугольный импульс}{lstlisting.3}{}}
\@writefile{lol}{\contentsline {lstlisting}{\numberline {3}\IeC {\cyrp }\IeC {\cyrr }\IeC {\cyrya }\IeC {\cyrm }\IeC {\cyro }\IeC {\cyru }\IeC {\cyrg }\IeC {\cyro }\IeC {\cyrl }\IeC {\cyrsftsn }\IeC {\cyrn }\IeC {\cyrery }\IeC {\cyrishrt } \IeC {\cyri }\IeC {\cyrm }\IeC {\cyrp }\IeC {\cyru }\IeC {\cyrl }\IeC {\cyrsftsn }\IeC {\cyrs }}{4}{lstlisting.3}}
\@writefile{lof}{\contentsline {figure}{\numberline {4.3}{\ignorespaces \IeC {\cyrp }\IeC {\cyrr }\IeC {\cyrya }\IeC {\cyrm }\IeC {\cyro }\IeC {\cyru }\IeC {\cyrg }\IeC {\cyro }\IeC {\cyrl }\IeC {\cyrsftsn }\IeC {\cyrn }\IeC {\cyrery }\IeC {\cyrishrt } \IeC {\cyri }\IeC {\cyrm }\IeC {\cyrp }\IeC {\cyru }\IeC {\cyrl }\IeC {\cyrsftsn }\IeC {\cyrs }\relax }}{5}{figure.caption.3}}
\newlabel{pic:pic_3}{{4.3}{5}{прямоугольный импульс\relax }{figure.caption.3}{}}
\newlabel{code:lab1}{{4}{5}{пара прямоугольных импульсов}{lstlisting.4}{}}
\@writefile{lol}{\contentsline {lstlisting}{\numberline {4}\IeC {\cyrp }\IeC {\cyra }\IeC {\cyrr }\IeC {\cyra } \IeC {\cyrp }\IeC {\cyrr }\IeC {\cyrya }\IeC {\cyrm }\IeC {\cyro }\IeC {\cyru }\IeC {\cyrg }\IeC {\cyro }\IeC {\cyrl }\IeC {\cyrsftsn }\IeC {\cyrn }\IeC {\cyrery }\IeC {\cyrh } \IeC {\cyri }\IeC {\cyrm }\IeC {\cyrp }\IeC {\cyru }\IeC {\cyrl }\IeC {\cyrsftsn }\IeC {\cyrs }\IeC {\cyro }\IeC {\cyrv }}{5}{lstlisting.4}}
\@writefile{lof}{\contentsline {figure}{\numberline {4.4}{\ignorespaces \IeC {\cyrp }\IeC {\cyra }\IeC {\cyrr }\IeC {\cyra } \IeC {\cyrp }\IeC {\cyrr }\IeC {\cyrya }\IeC {\cyrm }\IeC {\cyro }\IeC {\cyru }\IeC {\cyrg }\IeC {\cyro }\IeC {\cyrl }\IeC {\cyrsftsn }\IeC {\cyrn }\IeC {\cyrery }\IeC {\cyrh } \IeC {\cyri }\IeC {\cyrm }\IeC {\cyrp }\IeC {\cyru }\IeC {\cyrl }\IeC {\cyrsftsn }\IeC {\cyrs }\IeC {\cyro }\IeC {\cyrv }\relax }}{5}{figure.caption.4}}
\newlabel{pic:pic_3_1}{{4.4}{5}{пара прямоугольных импульсов\relax }{figure.caption.4}{}}
\newlabel{code:lab1}{{5}{6}{треугольный импульс}{lstlisting.5}{}}
\@writefile{lol}{\contentsline {lstlisting}{\numberline {5}\IeC {\cyrt }\IeC {\cyrr }\IeC {\cyre }\IeC {\cyru }\IeC {\cyrg }\IeC {\cyro }\IeC {\cyrl }\IeC {\cyrsftsn }\IeC {\cyrn }\IeC {\cyrery }\IeC {\cyrishrt } \IeC {\cyri }\IeC {\cyrm }\IeC {\cyrp }\IeC {\cyru }\IeC {\cyrl }\IeC {\cyrsftsn }\IeC {\cyrs }}{6}{lstlisting.5}}
\@writefile{lof}{\contentsline {figure}{\numberline {4.5}{\ignorespaces \IeC {\cyrt }\IeC {\cyrr }\IeC {\cyre }\IeC {\cyru }\IeC {\cyrg }\IeC {\cyro }\IeC {\cyrl }\IeC {\cyrsftsn }\IeC {\cyrn }\IeC {\cyrery }\IeC {\cyrishrt } \IeC {\cyri }\IeC {\cyrm }\IeC {\cyrp }\IeC {\cyru }\IeC {\cyrl }\IeC {\cyrsftsn }\IeC {\cyrs }\relax }}{6}{figure.caption.5}}
\newlabel{pic:pic_4}{{4.5}{6}{треугольный импульс\relax }{figure.caption.5}{}}
\newlabel{code:lab1}{{6}{6}{трапециевидный импульс}{lstlisting.6}{}}
\@writefile{lol}{\contentsline {lstlisting}{\numberline {6}\IeC {\cyrt }\IeC {\cyrr }\IeC {\cyra }\IeC {\cyrp }\IeC {\cyre }\IeC {\cyrc }\IeC {\cyri }\IeC {\cyre }\IeC {\cyrv }\IeC {\cyri }\IeC {\cyrd }\IeC {\cyrn }\IeC {\cyrery }\IeC {\cyrishrt } \IeC {\cyri }\IeC {\cyrm }\IeC {\cyrp }\IeC {\cyru }\IeC {\cyrl }\IeC {\cyrsftsn }\IeC {\cyrs }}{6}{lstlisting.6}}
\@writefile{lof}{\contentsline {figure}{\numberline {4.6}{\ignorespaces \IeC {\cyrt }\IeC {\cyrr }\IeC {\cyra }\IeC {\cyrp }\IeC {\cyre }\IeC {\cyrc }\IeC {\cyri }\IeC {\cyre }\IeC {\cyrv }\IeC {\cyri }\IeC {\cyrd }\IeC {\cyrn }\IeC {\cyrery }\IeC {\cyrishrt } \IeC {\cyri }\IeC {\cyrm }\IeC {\cyrp }\IeC {\cyru }\IeC {\cyrl }\IeC {\cyrsftsn }\IeC {\cyrs }\relax }}{7}{figure.caption.6}}
\newlabel{pic:pic_4_1}{{4.6}{7}{трапециевидный импульс\relax }{figure.caption.6}{}}
\newlabel{code:lab1}{{7}{7}{функция sinc}{lstlisting.7}{}}
\@writefile{lol}{\contentsline {lstlisting}{\numberline {7}\IeC {\cyrf }\IeC {\cyru }\IeC {\cyrn }\IeC {\cyrk }\IeC {\cyrc }\IeC {\cyri }\IeC {\cyrya } sinc}{7}{lstlisting.7}}
\@writefile{lof}{\contentsline {figure}{\numberline {4.7}{\ignorespaces \IeC {\cyrf }\IeC {\cyru }\IeC {\cyrn }\IeC {\cyrk }\IeC {\cyrc }\IeC {\cyri }\IeC {\cyrya } sinc\relax }}{7}{figure.caption.7}}
\newlabel{pic:pic_5}{{4.7}{7}{функция sinc\relax }{figure.caption.7}{}}
\newlabel{code:lab1}{{8}{8}{радиоимпульс}{lstlisting.8}{}}
\@writefile{lol}{\contentsline {lstlisting}{\numberline {8}\IeC {\cyrr }\IeC {\cyra }\IeC {\cyrd }\IeC {\cyri }\IeC {\cyro }\IeC {\cyri }\IeC {\cyrm }\IeC {\cyrp }\IeC {\cyru }\IeC {\cyrl }\IeC {\cyrsftsn }\IeC {\cyrs }}{8}{lstlisting.8}}
\@writefile{lof}{\contentsline {figure}{\numberline {4.8}{\ignorespaces \IeC {\cyrr }\IeC {\cyra }\IeC {\cyrd }\IeC {\cyri }\IeC {\cyro }\IeC {\cyri }\IeC {\cyrm }\IeC {\cyrp }\IeC {\cyru }\IeC {\cyrl }\IeC {\cyrsftsn }\IeC {\cyrs }\relax }}{8}{figure.caption.8}}
\newlabel{pic:pic_6}{{4.8}{8}{радиоимпульс\relax }{figure.caption.8}{}}
\newlabel{code:lab1}{{9}{8}{гауссов радиоимпульс}{lstlisting.9}{}}
\@writefile{lol}{\contentsline {lstlisting}{\numberline {9}\IeC {\cyrg }\IeC {\cyra }\IeC {\cyru }\IeC {\cyrs }\IeC {\cyrs }\IeC {\cyro }\IeC {\cyrv } \IeC {\cyrr }\IeC {\cyra }\IeC {\cyrd }\IeC {\cyri }\IeC {\cyro }\IeC {\cyri }\IeC {\cyrm }\IeC {\cyrp }\IeC {\cyru }\IeC {\cyrl }\IeC {\cyrsftsn }\IeC {\cyrs }}{8}{lstlisting.9}}
\@writefile{lof}{\contentsline {figure}{\numberline {4.9}{\ignorespaces \IeC {\cyrg }\IeC {\cyra }\IeC {\cyru }\IeC {\cyrs }\IeC {\cyrs }\IeC {\cyro }\IeC {\cyrv } \IeC {\cyrr }\IeC {\cyra }\IeC {\cyrd }\IeC {\cyri }\IeC {\cyro }\IeC {\cyri }\IeC {\cyrm }\IeC {\cyrp }\IeC {\cyru }\IeC {\cyrl }\IeC {\cyrsftsn }\IeC {\cyrs }\relax }}{9}{figure.caption.9}}
\newlabel{pic:pic_8}{{4.9}{9}{гауссов радиоимпульс\relax }{figure.caption.9}{}}
\newlabel{code:lab1}{{10}{9}{последовательности импульсов}{lstlisting.10}{}}
\@writefile{lol}{\contentsline {lstlisting}{\numberline {10}\IeC {\cyrp }\IeC {\cyro }\IeC {\cyrs }\IeC {\cyrl }\IeC {\cyre }\IeC {\cyrd }\IeC {\cyro }\IeC {\cyrv }\IeC {\cyra }\IeC {\cyrt }\IeC {\cyre }\IeC {\cyrl }\IeC {\cyrsftsn }\IeC {\cyrn }\IeC {\cyro }\IeC {\cyrs }\IeC {\cyrt }\IeC {\cyri } \IeC {\cyri }\IeC {\cyrm }\IeC {\cyrp }\IeC {\cyru }\IeC {\cyrl }\IeC {\cyrsftsn }\IeC {\cyrs }\IeC {\cyro }\IeC {\cyrv }}{9}{lstlisting.10}}
\@writefile{lof}{\contentsline {figure}{\numberline {4.10}{\ignorespaces \IeC {\cyrp }\IeC {\cyro }\IeC {\cyrs }\IeC {\cyrl }\IeC {\cyre }\IeC {\cyrd }\IeC {\cyro }\IeC {\cyrv }\IeC {\cyra }\IeC {\cyrt }\IeC {\cyre }\IeC {\cyrl }\IeC {\cyrsftsn }\IeC {\cyrn }\IeC {\cyro }\IeC {\cyrs }\IeC {\cyrt }\IeC {\cyrsftsn } \IeC {\cyrt }\IeC {\cyrr }\IeC {\cyre }\IeC {\cyru }\IeC {\cyrg }\IeC {\cyro }\IeC {\cyrl }\IeC {\cyrsftsn }\IeC {\cyrn }\IeC {\cyrery }\IeC {\cyrh } \IeC {\cyri }\IeC {\cyrm }\IeC {\cyrp }\IeC {\cyru }\IeC {\cyrl }\IeC {\cyrsftsn }\IeC {\cyrs }\IeC {\cyro }\IeC {\cyrv }\relax }}{10}{figure.caption.10}}
\newlabel{pic:pic_9}{{4.10}{10}{последовательность треугольных импульсов\relax }{figure.caption.10}{}}
\@writefile{lof}{\contentsline {figure}{\numberline {4.11}{\ignorespaces \IeC {\cyrp }\IeC {\cyro }\IeC {\cyrs }\IeC {\cyrl }\IeC {\cyre }\IeC {\cyrd }\IeC {\cyro }\IeC {\cyrv }\IeC {\cyra }\IeC {\cyrt }\IeC {\cyre }\IeC {\cyrl }\IeC {\cyrsftsn }\IeC {\cyrn }\IeC {\cyro }\IeC {\cyrs }\IeC {\cyrt }\IeC {\cyrsftsn } \IeC {\cyri }\IeC {\cyrm }\IeC {\cyrp }\IeC {\cyru }\IeC {\cyrl }\IeC {\cyrsftsn }\IeC {\cyrs }\IeC {\cyro }\IeC {\cyrv } $sin^2$\relax }}{10}{figure.caption.11}}
\newlabel{pic:pic_10}{{4.11}{10}{последовательность импульсов $sin^2$\relax }{figure.caption.11}{}}
\newlabel{code:lab1}{{11}{10}{периодический прямоугольный сигнал}{lstlisting.11}{}}
\@writefile{lol}{\contentsline {lstlisting}{\numberline {11}\IeC {\cyrp }\IeC {\cyre }\IeC {\cyrr }\IeC {\cyri }\IeC {\cyro }\IeC {\cyrd }\IeC {\cyri }\IeC {\cyrch }\IeC {\cyre }\IeC {\cyrs }\IeC {\cyrk }\IeC {\cyri }\IeC {\cyrishrt } \IeC {\cyrp }\IeC {\cyrr }\IeC {\cyrya }\IeC {\cyrm }\IeC {\cyro }\IeC {\cyru }\IeC {\cyrg }\IeC {\cyro }\IeC {\cyrl }\IeC {\cyrsftsn }\IeC {\cyrn }\IeC {\cyrery }\IeC {\cyrishrt } \IeC {\cyrs }\IeC {\cyri }\IeC {\cyrg }\IeC {\cyrn }\IeC {\cyra }\IeC {\cyrl }}{10}{lstlisting.11}}
\@writefile{lof}{\contentsline {figure}{\numberline {4.12}{\ignorespaces \IeC {\cyrp }\IeC {\cyre }\IeC {\cyrr }\IeC {\cyri }\IeC {\cyro }\IeC {\cyrd }\IeC {\cyri }\IeC {\cyrch }\IeC {\cyre }\IeC {\cyrs }\IeC {\cyrk }\IeC {\cyri }\IeC {\cyrishrt } \IeC {\cyrp }\IeC {\cyrr }\IeC {\cyrya }\IeC {\cyrm }\IeC {\cyro }\IeC {\cyru }\IeC {\cyrg }\IeC {\cyro }\IeC {\cyrl }\IeC {\cyrsftsn }\IeC {\cyrn }\IeC {\cyrery }\IeC {\cyrishrt } \IeC {\cyrs }\IeC {\cyri }\IeC {\cyrg }\IeC {\cyrn }\IeC {\cyra }\IeC {\cyrl }\relax }}{11}{figure.caption.12}}
\newlabel{pic:pic_11}{{4.12}{11}{периодический прямоугольный сигнал\relax }{figure.caption.12}{}}
\newlabel{code:lab1}{{12}{11}{периодический прямоугольный сигнал}{lstlisting.12}{}}
\@writefile{lol}{\contentsline {lstlisting}{\numberline {12}\IeC {\cyrp }\IeC {\cyre }\IeC {\cyrr }\IeC {\cyri }\IeC {\cyro }\IeC {\cyrd }\IeC {\cyri }\IeC {\cyrch }\IeC {\cyre }\IeC {\cyrs }\IeC {\cyrk }\IeC {\cyri }\IeC {\cyrishrt } \IeC {\cyrp }\IeC {\cyrr }\IeC {\cyrya }\IeC {\cyrm }\IeC {\cyro }\IeC {\cyru }\IeC {\cyrg }\IeC {\cyro }\IeC {\cyrl }\IeC {\cyrsftsn }\IeC {\cyrn }\IeC {\cyrery }\IeC {\cyrishrt } \IeC {\cyrs }\IeC {\cyri }\IeC {\cyrg }\IeC {\cyrn }\IeC {\cyra }\IeC {\cyrl }}{11}{lstlisting.12}}
\@writefile{lof}{\contentsline {figure}{\numberline {4.13}{\ignorespaces \IeC {\cyrp }\IeC {\cyre }\IeC {\cyrr }\IeC {\cyri }\IeC {\cyro }\IeC {\cyrd }\IeC {\cyri }\IeC {\cyrch }\IeC {\cyre }\IeC {\cyrs }\IeC {\cyrk }\IeC {\cyri }\IeC {\cyrishrt } \IeC {\cyrt }\IeC {\cyrr }\IeC {\cyre }\IeC {\cyru }\IeC {\cyrg }\IeC {\cyro }\IeC {\cyrl }\IeC {\cyrsftsn }\IeC {\cyrn }\IeC {\cyrery }\IeC {\cyrishrt } \IeC {\cyrs }\IeC {\cyri }\IeC {\cyrg }\IeC {\cyrn }\IeC {\cyra }\IeC {\cyrl }\relax }}{12}{figure.caption.13}}
\newlabel{pic:pic_12}{{4.13}{12}{периодический треугольный сигнал\relax }{figure.caption.13}{}}
\newlabel{code:lab1}{{13}{12}{функция Дирихле}{lstlisting.13}{}}
\@writefile{lol}{\contentsline {lstlisting}{\numberline {13}\IeC {\cyrf }\IeC {\cyru }\IeC {\cyrn }\IeC {\cyrk }\IeC {\cyrc }\IeC {\cyri }\IeC {\cyrya } \IeC {\CYRD }\IeC {\cyri }\IeC {\cyrr }\IeC {\cyri }\IeC {\cyrh }\IeC {\cyrl }\IeC {\cyre }}{12}{lstlisting.13}}
\@writefile{lof}{\contentsline {figure}{\numberline {4.14}{\ignorespaces \IeC {\cyrf }\IeC {\cyru }\IeC {\cyrn }\IeC {\cyrk }\IeC {\cyrc }\IeC {\cyri }\IeC {\cyrya } \IeC {\CYRD }\IeC {\cyri }\IeC {\cyrr }\IeC {\cyri }\IeC {\cyrh }\IeC {\cyrl }\IeC {\cyre }\relax }}{13}{figure.caption.14}}
\newlabel{pic:pic_13}{{4.14}{13}{функция Дирихле\relax }{figure.caption.14}{}}
\newlabel{code:lab1}{{14}{13}{Сравнение алгоритмов определения корреляции}{lstlisting.14}{}}
\@writefile{lol}{\contentsline {lstlisting}{\numberline {14}\IeC {\CYRS }\IeC {\cyrr }\IeC {\cyra }\IeC {\cyrv }\IeC {\cyrn }\IeC {\cyre }\IeC {\cyrn }\IeC {\cyri }\IeC {\cyre } \IeC {\cyra }\IeC {\cyrl }\IeC {\cyrg }\IeC {\cyro }\IeC {\cyrr }\IeC {\cyri }\IeC {\cyrt }\IeC {\cyrm }\IeC {\cyro }\IeC {\cyrv } \IeC {\cyro }\IeC {\cyrp }\IeC {\cyrr }\IeC {\cyre }\IeC {\cyrd }\IeC {\cyre }\IeC {\cyrl }\IeC {\cyre }\IeC {\cyrn }\IeC {\cyri }\IeC {\cyrya } \IeC {\cyrk }\IeC {\cyro }\IeC {\cyrr }\IeC {\cyrr }\IeC {\cyre }\IeC {\cyrl }\IeC {\cyrya }\IeC {\cyrc }\IeC {\cyri }\IeC {\cyri }}{13}{lstlisting.14}}
\@writefile{toc}{\contentsline {subsection}{\numberline {4.2}\IeC {\CYRS }\IeC {\cyrr }\IeC {\cyra }\IeC {\cyrv }\IeC {\cyrn }\IeC {\cyre }\IeC {\cyrn }\IeC {\cyri }\IeC {\cyre } \IeC {\cyrm }\IeC {\cyre }\IeC {\cyrt }\IeC {\cyro }\IeC {\cyrd }\IeC {\cyro }\IeC {\cyrv } \IeC {\cyrk }\IeC {\cyro }\IeC {\cyrr }\IeC {\cyrr }\IeC {\cyre }\IeC {\cyrl }\IeC {\cyrya }\IeC {\cyrc }\IeC {\cyri }\IeC {\cyri }}{13}{subsection.4.2}}
\@writefile{toc}{\contentsline {section}{\numberline {5}\IeC {\CYRV }\IeC {\cyrery }\IeC {\cyrv }\IeC {\cyro }\IeC {\cyrd }\IeC {\cyrery }}{14}{section.5}}
\ttl@finishall
